…
### O banco foi feito em SPSS e está em formato SAV. Carregue-o

banco <- read_sav( "banco_ex6.sav" )

write_sav( banco, "banco.sav" )



### Utilize as funções para observar o banco de dados


banco
```

    ## # A tibble: 2,506 x 286
    ##    A1_Nquest DIAENTR  MESENTR ANOENTR D1A_ID D1A_FAIXAID D2_SEXO D3_ESCOLA
    ##        <dbl>   <dbl> <dbl+lb>   <dbl>  <dbl>   <dbl+lbl> <dbl+l> <dbl+lbl>
    ##  1         1      15 11 [Nov~    2018     41 4 [35 A 44] 2 [Fem~ 5 [Coleg~
    ##  2         2      15 11 [Nov~    2018     23 2 [18 A 24] 1 [Mas~ 5 [Coleg~
    ##  3         3      15 11 [Nov~    2018     21 2 [18 A 24] 2 [Fem~ 6 [Coleg~
    ##  4         4      16 11 [Nov~    2018     39 4 [35 A 44] 1 [Mas~ 3 [Ginás~
    ##  5         5      16 11 [Nov~    2018     64 6 [55 A 64] 1 [Mas~ 0 [Analf~
    ##  6         6      16 11 [Nov~    2018     45 5 [45 A 54] 2 [Fem~ 0 [Analf~
    ##  7         7      16 11 [Nov~    2018     18 2 [18 A 24] 2 [Fem~ 4 [Ginás~
    ##  8         8      17 11 [Nov~    2018     29 3 [25 A 34] 1 [Mas~ 8 [Ensin~
    ##  9         9      17 11 [Nov~    2018     25 3 [25 A 34] 2 [Fem~ 8 [Ensin~
    ## 10        10      17 11 [Nov~    2018     31 3 [25 A 34] 1 [Mas~ 6 [Coleg~
    ## # ... with 2,496 more rows, and 278 more variables: RAMOATIV <dbl+lbl>,
    ## #   RAMOCHEFEF <dbl+lbl>, OCUPA <dbl+lbl>, UF <dbl+lbl>, CID <dbl+lbl>,
    ## #   REG <dbl+lbl>, Q1 <dbl+lbl>, Q2 <dbl+lbl>, Q3 <dbl+lbl>, Q401 <dbl+lbl>,
    ## #   Q402 <dbl+lbl>, Q403 <dbl+lbl>, Q404 <dbl+lbl>, Q405 <dbl+lbl>,
    ## #   Q406 <dbl+lbl>, Q407 <dbl+lbl>, Q501 <dbl+lbl>, Q502 <dbl+lbl>,
    ## #   Q503 <dbl+lbl>, Q504 <dbl+lbl>, Q505 <dbl+lbl>, Q601 <dbl+lbl>,
    ## #   Q602 <dbl+lbl>, Q603 <dbl+lbl>, Q604 <dbl+lbl>, Q7 <dbl+lbl>, Q8 <dbl+lbl>,
    ## #   Q9 <dbl+lbl>, Q10A <dbl+lbl>, Q10B <dbl+lbl>, Q11 <dbl+lbl>,
    ## #   Q12P1_A <dbl+lbl>, Q12P1_B <dbl+lbl>, Q12P2_A <dbl+lbl>, Q12P2_B <dbl+lbl>,
…
``` r
observe( banco )
```

    ## # A tibble: 2,506 x 286
    ##    A1_Nquest DIAENTR  MESENTR ANOENTR D1A_ID D1A_FAIXAID D2_SEXO D3_ESCOLA
    ##        <dbl>   <dbl> <dbl+lb>   <dbl>  <dbl>   <dbl+lbl> <dbl+l> <dbl+lbl>
    ##  1         1      15 11 [Nov~    2018     41 4 [35 A 44] 2 [Fem~ 5 [Coleg~
    ##  2         2      15 11 [Nov~    2018     23 2 [18 A 24] 1 [Mas~ 5 [Coleg~
    ##  3         3      15 11 [Nov~    2018     21 2 [18 A 24] 2 [Fem~ 6 [Coleg~
    ##  4         4      16 11 [Nov~    2018     39 4 [35 A 44] 1 [Mas~ 3 [Ginás~
    ##  5         5      16 11 [Nov~    2018     64 6 [55 A 64] 1 [Mas~ 0 [Analf~
    ##  6         6      16 11 [Nov~    2018     45 5 [45 A 54] 2 [Fem~ 0 [Analf~
    ##  7         7      16 11 [Nov~    2018     18 2 [18 A 24] 2 [Fem~ 4 [Ginás~
    ##  8         8      17 11 [Nov~    2018     29 3 [25 A 34] 1 [Mas~ 8 [Ensin~
    ##  9         9      17 11 [Nov~    2018     25 3 [25 A 34] 2 [Fem~ 8 [Ensin~
    ## 10        10      17 11 [Nov~    2018     31 3 [25 A 34] 1 [Mas~ 6 [Coleg~
    ## # ... with 2,496 more rows, and 278 more variables: RAMOATIV <dbl+lbl>,
    ## #   RAMOCHEFEF <dbl+lbl>, OCUPA <dbl+lbl>, UF <dbl+lbl>, CID <dbl+lbl>,
    ## #   REG <dbl+lbl>, Q1 <dbl+lbl>, Q2 <dbl+lbl>, Q3 <dbl+lbl>, Q401 <dbl+lbl>,
    ## #   Q402 <dbl+lbl>, Q403 <dbl+lbl>, Q404 <dbl+lbl>, Q405 <dbl+lbl>,
    ## #   Q406 <dbl+lbl>, Q407 <dbl+lbl>, Q501 <dbl+lbl>, Q502 <dbl+lbl>,
    ## #   Q503 <dbl+lbl>, Q504 <dbl+lbl>, Q505 <dbl+lbl>, Q601 <dbl+lbl>,
    ## #   Q602 <dbl+lbl>, Q603 <dbl+lbl>, Q604 <dbl+lbl>, Q7 <dbl+lbl>, Q8 <dbl+lbl>,
    ## #   Q9 <dbl+lbl>, Q10A <dbl+lbl>, Q10B <dbl+lbl>, Q11 <dbl+lbl>,
    ## #   Q12P1_A <dbl+lbl>, Q12P1_B <dbl+lbl>, Q12P2_A <dbl+lbl>, Q12P2_B <dbl+lbl>,
…
